// Jest Snapshot v1, https://goo.gl/fbAQLP

exports[`renders correctly 1`] = `
<View
  style={
    Object {
      "backgroundColor": "#15191C",
      "flex": 1,
      "marginTop": 20,
    }
  }
>
  <View
    style={
      Object {
        "backgroundColor": "#15191C",
        "flexDirection": "row",
        "justifyContent": "space-around",
        "padding": 15,
      }
    }
  >
    <Text
      onPress={[Function]}
      style={
        Object {
          "color": "white",
          "flex": 2,
        }
      }
    >
      Menu
    </Text>
    <Text
      style={
        Object {
          "color": "white",
          "flex": 6,
          "fontSize": 20,
          "fontWeight": "bold",
          "textAlign": "center",
        }
      }
    >
      Movie Apps
    </Text>
    <Text
      onPress={[Function]}
      style={
        Object {
          "color": "white",
          "flex": 2,
        }
      }
    >
      Search
    </Text>
  </View>
  <RCTScrollView
    data={Array []}
    disableVirtualization={false}
    getItem={[Function]}
    getItemCount={[Function]}
    horizontal={false}
    initialNumToRender={10}
    keyExtractor={[Function]}
    maxToRenderPerBatch={10}
    numColumns={1}
    onContentSizeChange={[Function]}
    onEndReached={[Function]}
    onEndReachedThreshold={0.5}
    onLayout={[Function]}
    onMomentumScrollEnd={[Function]}
    onScroll={[Function]}
    onScrollBeginDrag={[Function]}
    onScrollEndDrag={[Function]}
    refreshControl={
      <RefreshControlMock
        onRefresh={[Function]}
        refreshing={true}
      />
    }
    removeClippedSubviews={false}
    renderItem={[Function]}
    scrollEventThrottle={50}
    stickyHeaderIndices={Array []}
    updateCellsBatchingPeriod={50}
    viewabilityConfigCallbackPairs={Array []}
    windowSize={21}
  >
    <RCTRefreshControl />
    <View />
  </RCTScrollView>
</View>
`;
